﻿Log file open, 07/29/21 04:05:24
LogWindows: Failed to load 'aqProf.dll' (GetLastError=126)
LogWindows: File 'aqProf.dll' does not exist
LogWindows: Failed to load 'VtuneApi.dll' (GetLastError=126)
LogWindows: File 'VtuneApi.dll' does not exist
LogWindows: Failed to load 'VtuneApi32e.dll' (GetLastError=126)
LogWindows: File 'VtuneApi32e.dll' does not exist
LogConsoleResponse: Display: Failed to find resolution value strings in scalability ini. Falling back to default.
LogInit: Display: Running engine for game: arkanoid
LogPakFile: Registered encryption key '00000000000000000000000000000000': 0 pak files mounted, 0 remain pending
LogPlatformFile: Not using cached read wrapper
LogTaskGraph: Started task graph with 5 named threads and 23 total threads with 3 sets of task threads.
LogStats: Stats thread started at 0.391274
LogD3D11RHI: Loaded GFSDK_Aftermath_Lib.x64.dll
LogICUInternationalization: ICU TimeZone Detection - Raw Offset: +3:00, Platform Override: ''
LogPluginManager: Mounting plugin Paper2D
LogPluginManager: Mounting plugin AISupport
LogPluginManager: Mounting plugin LightPropagationVolume
LogPluginManager: Mounting plugin ActorLayerUtilities
LogPluginManager: Mounting plugin AnimationSharing
LogPluginManager: Mounting plugin CLionSourceCodeAccess
LogPluginManager: Mounting plugin CodeLiteSourceCodeAccess
LogPluginManager: Mounting plugin GitSourceControl
LogPluginManager: Mounting plugin KDevelopSourceCodeAccess
LogPluginManager: Mounting plugin NullSourceCodeAccess
LogPluginManager: Mounting plugin PerforceSourceControl
LogPluginManager: Mounting plugin SubversionSourceControl
LogPluginManager: Mounting plugin UObjectPlugin
LogPluginManager: Mounting plugin VisualStudioCodeSourceCodeAccess
LogPluginManager: Mounting plugin VisualStudioSourceCodeAccess
LogPluginManager: Mounting plugin XCodeSourceCodeAccess
LogPluginManager: Mounting plugin AssetManagerEditor
LogPluginManager: Mounting plugin CryptoKeys
LogPluginManager: Mounting plugin DataValidation
LogPluginManager: Mounting plugin FacialAnimation
LogPluginManager: Mounting plugin GameplayTagsEditor
LogPluginManager: Mounting plugin MacGraphicsSwitching
LogPluginManager: Mounting plugin MaterialAnalyzer
LogPluginManager: Mounting plugin MobileLauncherProfileWizard
LogPluginManager: Mounting plugin PluginBrowser
LogPluginManager: Mounting plugin SpeedTreeImporter
LogPluginManager: Mounting plugin DatasmithContent
LogPluginManager: Mounting plugin VariantManagerContent
LogPluginManager: Mounting plugin AlembicImporter
LogPluginManager: Mounting plugin AppleImageUtils
LogPluginManager: Mounting plugin AppleVision
LogPluginManager: Mounting plugin BackChannel
LogPluginManager: Mounting plugin CharacterAI
LogPluginManager: Mounting plugin GeometryCache
LogPluginManager: Mounting plugin HTML5Networking
LogPluginManager: Mounting plugin ProxyLODPlugin
LogPluginManager: Mounting plugin SkeletalReduction
LogPluginManager: Mounting plugin MagicLeap
LogPluginManager: Mounting plugin MagicLeapMedia
LogPluginManager: Mounting plugin AndroidMedia
LogPluginManager: Mounting plugin AvfMedia
LogPluginManager: Mounting plugin ImgMedia
LogPluginManager: Mounting plugin LinearTimecode
LogPluginManager: Mounting plugin MediaCompositing
LogPluginManager: Mounting plugin MediaPlayerEditor
LogPluginManager: Mounting plugin WebMMedia
LogPluginManager: Mounting plugin WmfMedia
LogPluginManager: Mounting plugin TcpMessaging
LogPluginManager: Mounting plugin UdpMessaging
LogPluginManager: Mounting plugin ActorSequence
LogPluginManager: Mounting plugin LevelSequenceEditor
LogPluginManager: Mounting plugin MatineeToLevelSequence
LogPluginManager: Mounting plugin NetcodeUnitTest
LogPluginManager: Mounting plugin NUTUnrealEngine4
LogPluginManager: Mounting plugin OnlineSubsystemGooglePlay
LogPluginManager: Mounting plugin OnlineSubsystemIOS
LogPluginManager: Mounting plugin OnlineSubsystem
LogPluginManager: Mounting plugin OnlineSubsystemNull
LogPluginManager: Mounting plugin OnlineSubsystemUtils
LogPluginManager: Mounting plugin LauncherChunkInstaller
LogPluginManager: Mounting plugin AndroidDeviceProfileSelector
LogPluginManager: Mounting plugin AndroidMoviePlayer
LogPluginManager: Mounting plugin AndroidPermission
LogPluginManager: Mounting plugin AppleMoviePlayer
LogPluginManager: Mounting plugin ArchVisCharacter
LogPluginManager: Mounting plugin AudioCapture
LogPluginManager: Mounting plugin CableComponent
LogPluginManager: Mounting plugin CustomMeshComponent
LogPluginManager: Mounting plugin EditableMesh
LogPluginManager: Mounting plugin ExampleDeviceProfileSelector
LogPluginManager: Mounting plugin Firebase
LogPluginManager: Mounting plugin GoogleCloudMessaging
LogPluginManager: Mounting plugin IOSDeviceProfileSelector
LogPluginManager: Mounting plugin LinuxDeviceProfileSelector
LogPluginManager: Mounting plugin LocationServicesBPLibrary
LogPluginManager: Mounting plugin MobilePatchingUtils
LogPluginManager: Mounting plugin OculusVR
LogPluginManager: Mounting plugin PhysXVehicles
LogPluginManager: Mounting plugin ProceduralMeshComponent
LogPluginManager: Mounting plugin RuntimePhysXCooking
LogPluginManager: Mounting plugin SignificanceManager
LogPluginManager: Mounting plugin SteamVR
LogPluginManager: Mounting plugin WebMMoviePlayer
LogPluginManager: Mounting plugin WindowsMoviePlayer
LogInit: Using libcurl 7.55.1-DEV
LogInit:  - built for x86_64-pc-win32
LogInit:  - supports SSL with OpenSSL/1.1.1
LogInit:  - supports HTTP deflate (compression) using libz 1.2.8
LogInit:  - other features:
LogInit:      CURL_VERSION_SSL
LogInit:      CURL_VERSION_LIBZ
LogInit:      CURL_VERSION_IPV6
LogInit:      CURL_VERSION_ASYNCHDNS
LogInit:      CURL_VERSION_LARGEFILE
LogInit:      CURL_VERSION_IDN
LogInit:  CurlRequestOptions (configurable via config and command line):
LogInit:  - bVerifyPeer = true  - Libcurl will verify peer certificate
LogInit:  - bUseHttpProxy = false  - Libcurl will NOT use HTTP proxy
LogInit:  - bDontReuseConnections = false  - Libcurl will reuse connections
LogInit:  - MaxHostConnections = 16  - Libcurl will limit the number of connections to a host
LogInit:  - LocalHostAddr = Default
LogInit:  - BufferSize = 65536
LogInit: WinSock: version 1.1 (2.2), MaxSocks=32767, MaxUdp=65467
LogInit: Build: ++UE4+Release-4.22-CL-7053642
LogInit: Engine Version: 4.22.3-7053642+++UE4+Release-4.22
LogInit: Compatible Engine Version: 4.22.0-5660361+++UE4+Release-4.22
LogInit: Net CL: 5660361
LogInit: OS: Windows 10 (Release 2009) (), CPU: Intel(R) Core(TM) i5-10210U CPU @ 1.60GHz, GPU: Intel(R) UHD Graphics
LogInit: Compiled (64-bit): Jun 18 2019 03:09:11
LogInit: Compiled with Visual C++: 19.16.27025.01
LogInit: Build Configuration: Development
LogInit: Branch Name: ++UE4+Release-4.22
LogInit: Command Line: 
LogInit: Base Directory: C:/Program Files/Epic Games/UE_4.22/Engine/Binaries/Win64/
LogInit: Installed Engine Build: 1
LogDevObjectVersion: Number of dev versions registered: 23
LogDevObjectVersion:   Dev-Blueprints (B0D832E4-1F89-4F0D-ACCF-7EB736FD4AA2): 10
LogDevObjectVersion:   Dev-Build (E1C64328-A22C-4D53-A36C-8E866417BD8C): 0
LogDevObjectVersion:   Dev-Core (375EC13C-06E4-48FB-B500-84F0262A717E): 3
LogDevObjectVersion:   Dev-Editor (E4B068ED-F494-42E9-A231-DA0B2E46BB41): 30
LogDevObjectVersion:   Dev-Framework (CFFC743F-43B0-4480-9391-14DF171D2073): 35
LogDevObjectVersion:   Dev-Mobile (B02B49B5-BB20-44E9-A304-32B752E40360): 2
LogDevObjectVersion:   Dev-Networking (A4E4105C-59A1-49B5-A7C5-40C4547EDFEE): 0
LogDevObjectVersion:   Dev-Online (39C831C9-5AE6-47DC-9A44-9C173E1C8E7C): 0
LogDevObjectVersion:   Dev-Physics (78F01B33-EBEA-4F98-B9B4-84EACCB95AA2): 0
LogDevObjectVersion:   Dev-Platform (6631380F-2D4D-43E0-8009-CF276956A95A): 0
LogDevObjectVersion:   Dev-Rendering (12F88B9F-8875-4AFC-A67C-D90C383ABD29): 28
LogDevObjectVersion:   Dev-Sequencer (7B5AE74C-D270-4C10-A958-57980B212A5A): 11
LogDevObjectVersion:   Dev-VR (D7296918-1DD6-4BDD-9DE2-64A83CC13884): 2
LogDevObjectVersion:   Dev-LoadTimes (C2A15278-BFE7-4AFE-6C17-90FF531DF755): 1
LogDevObjectVersion:   Private-Geometry (6EACA3D4-40EC-4CC1-B786-8BED09428FC5): 3
LogDevObjectVersion:   Dev-AnimPhys (29E575DD-E0A3-4627-9D10-D276232CDCEA): 17
LogDevObjectVersion:   Dev-Anim (AF43A65D-7FD3-4947-9873-3E8ED9C1BB05): 2
LogDevObjectVersion:   Dev-ReflectionCapture (6B266CEC-1EC7-4B8F-A30B-E4D90942FC07): 1
LogDevObjectVersion:   Dev-Automation (0DF73D61-A23F-47EA-B727-89E90C41499A): 1
LogDevObjectVersion:   FortniteMain (601D1886-AC64-4F84-AA16-D3DE0DEAC7D6): 25
LogDevObjectVersion:   Dev-Enterprise (9DFFBCD6-494F-0158-E221-12823C92A888): 6
LogDevObjectVersion:   Dev-Niagara (F2AED0AC-9AFE-416F-8664-AA7FFA26D6FC): 1
LogDevObjectVersion:   Dev-Destruction (174F1F0B-B4C6-45A5-B13F-2EE8D0FB917D): 2
LogInit: Presizing for max 16777216 objects, including 0 objects not considered by GC, pre-allocating 0 bytes for permanent pool.
LogInit: Object subsystem initialized
LogConfig: Setting CVar [[con.DebugEarlyDefault:1]]
LogConfig: Setting CVar [[r.setres:1280x720]]
[2021.07.29-01.05.24:833][  0]LogConfig: Setting CVar [[r.VSync:0]]
[2021.07.29-01.05.24:833][  0]LogConfig: Setting CVar [[r.RHICmdBypass:0]]
[2021.07.29-01.05.24:833][  0]LogConfig: Applying CVar settings from Section [/Script/Engine.RendererSettings] File [C:/Users/Meresse/Documents/Unreal Projects/homework_9/Saved/Config/Windows/Engine.ini]
[2021.07.29-01.05.24:833][  0]LogConfig: Setting CVar [[r.GPUCrashDebugging:0]]
[2021.07.29-01.05.24:833][  0]LogConfig: Setting CVar [[r.DefaultFeature.AutoExposure.ExtendDefaultLuminanceRange:1]]
[2021.07.29-01.05.24:833][  0]LogConfig: Applying CVar settings from Section [/Script/Engine.RendererOverrideSettings] File [C:/Users/Meresse/Documents/Unreal Projects/homework_9/Saved/Config/Windows/Engine.ini]
[2021.07.29-01.05.24:833][  0]LogConfig: Applying CVar settings from Section [/Script/Engine.StreamingSettings] File [C:/Users/Meresse/Documents/Unreal Projects/homework_9/Saved/Config/Windows/Engine.ini]
[2021.07.29-01.05.24:833][  0]LogConfig: Setting CVar [[s.MinBulkDataSizeForAsyncLoading:131072]]
[2021.07.29-01.05.24:833][  0]LogConfig: Setting CVar [[s.AsyncLoadingThreadEnabled:0]]
[2021.07.29-01.05.24:833][  0]LogConfig: Setting CVar [[s.EventDrivenLoaderEnabled:1]]
[2021.07.29-01.05.24:833][  0]LogConfig: Setting CVar [[s.WarnIfTimeLimitExceeded:0]]
[2021.07.29-01.05.24:833][  0]LogConfig: Setting CVar [[s.TimeLimitExceededMultiplier:1.5]]
[2021.07.29-01.05.24:833][  0]LogConfig: Setting CVar [[s.TimeLimitExceededMinTime:0.005]]
[2021.07.29-01.05.24:833][  0]LogConfig: Setting CVar [[s.UseBackgroundLevelStreaming:1]]
[2021.07.29-01.05.24:833][  0]LogConfig: Setting CVar [[s.PriorityAsyncLoadingExtraTime:15.0]]
[2021.07.29-01.05.24:833][  0]LogConfig: Setting CVar [[s.LevelStreamingActorsUpdateTimeLimit:5.0]]
[2021.07.29-01.05.24:833][  0]LogConfig: Setting CVar [[s.PriorityLevelStreamingActorsUpdateExtraTime:5.0]]
[2021.07.29-01.05.24:833][  0]LogConfig: Setting CVar [[s.LevelStreamingComponentsRegistrationGranularity:10]]
[2021.07.29-01.05.24:833][  0]LogConfig: Setting CVar [[s.UnregisterComponentsTimeLimit:1.0]]
[2021.07.29-01.05.24:833][  0]LogConfig: Setting CVar [[s.LevelStreamingComponentsUnregistrationGranularity:5]]
[2021.07.29-01.05.24:833][  0]LogConfig: Applying CVar settings from Section [/Script/Engine.GarbageCollectionSettings] File [C:/Users/Meresse/Documents/Unreal Projects/homework_9/Saved/Config/Windows/Engine.ini]
[2021.07.29-01.05.24:833][  0]LogConfig: Setting CVar [[gc.MaxObjectsNotConsideredByGC:1]]
[2021.07.29-01.05.24:833][  0]LogConfig: Setting CVar [[gc.SizeOfPermanentObjectPool:0]]
[2021.07.29-01.05.24:833][  0]LogConfig: Setting CVar [[gc.FlushStreamingOnGC:0]]
[2021.07.29-01.05.24:833][  0]LogConfig: Setting CVar [[gc.NumRetriesBeforeForcingGC:10]]
[2021.07.29-01.05.24:833][  0]LogConfig: Setting CVar [[gc.AllowParallelGC:1]]
[2021.07.29-01.05.24:833][  0]LogConfig: Setting CVar [[gc.TimeBetweenPurgingPendingKillObjects:61.1]]
[2021.07.29-01.05.24:833][  0]LogConfig: Setting CVar [[gc.MaxObjectsInEditor:16777216]]
[2021.07.29-01.05.24:833][  0]LogConfig: Setting CVar [[gc.IncrementalBeginDestroyEnabled:1]]
[2021.07.29-01.05.24:833][  0]LogConfig: Setting CVar [[gc.CreateGCClusters:1]]
[2021.07.29-01.05.24:833][  0]LogConfig: Setting CVar [[gc.MinGCClusterSize:5]]
[2021.07.29-01.05.24:833][  0]LogConfig: Setting CVar [[gc.ActorClusteringEnabled:0]]
[2021.07.29-01.05.24:833][  0]LogConfig: Setting CVar [[gc.BlueprintClusteringEnabled:0]]
[2021.07.29-01.05.24:833][  0]LogConfig: Setting CVar [[gc.UseDisregardForGCOnDedicatedServers:0]]
[2021.07.29-01.05.24:833][  0]LogConfig: Applying CVar settings from Section [/Script/Engine.NetworkSettings] File [C:/Users/Meresse/Documents/Unreal Projects/homework_9/Saved/Config/Windows/Engine.ini]
[2021.07.29-01.05.24:833][  0]LogConfig: Applying CVar settings from Section [/Script/UnrealEd.CookerSettings] File [C:/Users/Meresse/Documents/Unreal Projects/homework_9/Saved/Config/Windows/Engine.ini]
[2021.07.29-01.05.24:836][  0]LogConfig: Applying CVar settings from Section [ViewDistanceQuality@3] File [C:/Users/Meresse/Documents/Unreal Projects/homework_9/Saved/Config/Windows/Scalability.ini]
[2021.07.29-01.05.24:836][  0]LogConfig: Setting CVar [[r.SkeletalMeshLODBias:0]]
[2021.07.29-01.05.24:836][  0]LogConfig: Setting CVar [[r.ViewDistanceScale:1.0]]
[2021.07.29-01.05.24:836][  0]LogConfig: Applying CVar settings from Section [AntiAliasingQuality@3] File [C:/Users/Meresse/Documents/Unreal Projects/homework_9/Saved/Config/Windows/Scalability.ini]
[2021.07.29-01.05.24:836][  0]LogConfig: Setting CVar [[r.PostProcessAAQuality:4]]
[2021.07.29-01.05.24:836][  0]LogConfig: Applying CVar settings from Section [ShadowQuality@3] File [C:/Users/Meresse/Documents/Unreal Projects/homework_9/Saved/Config/Windows/Scalability.ini]
[2021.07.29-01.05.24:836][  0]LogConfig: Setting CVar [[r.LightFunctionQuality:1]]
[2021.07.29-01.05.24:836][  0]LogConfig: Setting CVar [[r.ShadowQuality:5]]
[2021.07.29-01.05.24:836][  0]LogConfig: Setting CVar [[r.Shadow.CSM.MaxCascades:10]]
[2021.07.29-01.05.24:836][  0]LogConfig: Setting CVar [[r.Shadow.MaxResolution:2048]]
[2021.07.29-01.05.24:836][  0]LogConfig: Setting CVar [[r.Shadow.MaxCSMResolution:2048]]
[2021.07.29-01.05.24:836][  0]LogConfig: Setting CVar [[r.Shadow.RadiusThreshold:0.01]]
[2021.07.29-01.05.24:836][  0]LogConfig: Setting CVar [[r.Shadow.DistanceScale:1.0]]
[2021.07.29-01.05.24:836][  0]LogConfig: Setting CVar [[r.Shadow.CSM.TransitionScale:1.0]]
[2021.07.29-01.05.24:836][  0]LogConfig: Setting CVar [[r.Shadow.PreShadowResolutionFactor:1.0]]
[2021.07.29-01.05.24:836][  0]LogConfig: Setting CVar [[r.DistanceFieldShadowing:1]]
[2021.07.29-01.05.24:836][  0]LogConfig: Setting CVar [[r.DistanceFieldAO:1]]
[2021.07.29-01.05.24:836][  0]LogConfig: Setting CVar [[r.AOQuality:2]]
[2021.07.29-01.05.24:836][  0]LogConfig: Setting CVar [[r.VolumetricFog:1]]
[2021.07.29-01.05.24:836][  0]LogConfig: Setting CVar [[r.VolumetricFog.GridPixelSize:8]]
[2021.07.29-01.05.24:836][  0]LogConfig: Setting CVar [[r.VolumetricFog.GridSizeZ:128]]
[2021.07.29-01.05.24:836][  0]LogConfig: Setting CVar [[r.VolumetricFog.HistoryMissSupersampleCount:4]]
[2021.07.29-01.05.24:836][  0]LogConfig: Setting CVar [[r.LightMaxDrawDistanceScale:1]]
[2021.07.29-01.05.24:836][  0]LogConfig: Setting CVar [[r.CapsuleShadows:1]]
[2021.07.29-01.05.24:836][  0]LogConfig: Applying CVar settings from Section [PostProcessQuality@3] File [C:/Users/Meresse/Documents/Unreal Projects/homework_9/Saved/Config/Windows/Scalability.ini]
[2021.07.29-01.05.24:836][  0]LogConfig: Setting CVar [[r.MotionBlurQuality:4]]
[2021.07.29-01.05.24:836][  0]LogConfig: Setting CVar [[r.AmbientOcclusionMipLevelFactor:0.4]]
[2021.07.29-01.05.24:836][  0]LogConfig: Setting CVar [[r.AmbientOcclusionMaxQuality:100]]
[2021.07.29-01.05.24:836][  0]LogConfig: Setting CVar [[r.AmbientOcclusionLevels:-1]]
[2021.07.29-01.05.24:836][  0]LogConfig: Setting CVar [[r.AmbientOcclusionRadiusScale:1.0]]
[2021.07.29-01.05.24:836][  0]LogConfig: Setting CVar [[r.DepthOfFieldQuality:2]]
[2021.07.29-01.05.24:836][  0]LogConfig: Setting CVar [[r.RenderTargetPoolMin:400]]
[2021.07.29-01.05.24:836][  0]LogConfig: Setting CVar [[r.LensFlareQuality:2]]
[2021.07.29-01.05.24:836][  0]LogConfig: Setting CVar [[r.SceneColorFringeQuality:1]]
[2021.07.29-01.05.24:836][  0]LogConfig: Setting CVar [[r.EyeAdaptationQuality:2]]
[2021.07.29-01.05.24:836][  0]LogConfig: Setting CVar [[r.BloomQuality:5]]
[2021.07.29-01.05.24:836][  0]LogConfig: Setting CVar [[r.FastBlurThreshold:100]]
[2021.07.29-01.05.24:836][  0]LogConfig: Setting CVar [[r.Upscale.Quality:3]]
[2021.07.29-01.05.24:836][  0]LogConfig: Setting CVar [[r.Tonemapper.GrainQuantization:1]]
[2021.07.29-01.05.24:836][  0]LogConfig: Setting CVar [[r.LightShaftQuality:1]]
[2021.07.29-01.05.24:836][  0]LogConfig: Setting CVar [[r.Filter.SizeScale:1]]
[2021.07.29-01.05.24:836][  0]LogConfig: Setting CVar [[r.Tonemapper.Quality:5]]
[2021.07.29-01.05.24:836][  0]LogConfig: Setting CVar [[r.DOF.Gather.AccumulatorQuality:1        ; higher gathering accumulator quality]]
[2021.07.29-01.05.24:836][  0]LogConfig: Setting CVar [[r.DOF.Gather.PostfilterMethod:1          ; Median3x3 postfilering method]]
[2021.07.29-01.05.24:836][  0]LogConfig: Setting CVar [[r.DOF.Gather.EnableBokehSettings:0       ; no bokeh simulation when gathering]]
[2021.07.29-01.05.24:836][  0]LogConfig: Setting CVar [[r.DOF.Gather.RingCount:4                 ; medium number of samples when gathering]]
[2021.07.29-01.05.24:836][  0]LogConfig: Setting CVar [[r.DOF.Scatter.ForegroundCompositing:1    ; additive foreground scattering]]
[2021.07.29-01.05.24:836][  0]LogConfig: Setting CVar [[r.DOF.Scatter.BackgroundCompositing:2    ; additive background scattering]]
[2021.07.29-01.05.24:836][  0]LogConfig: Setting CVar [[r.DOF.Scatter.EnableBokehSettings:1      ; bokeh simulation when scattering]]
[2021.07.29-01.05.24:837][  0]LogConfig: Setting CVar [[r.DOF.Scatter.MaxSpriteRatio:0.1         ; only a maximum of 10% of scattered bokeh]]
[2021.07.29-01.05.24:837][  0]LogConfig: Setting CVar [[r.DOF.Recombine.Quality:1                ; cheap slight out of focus]]
[2021.07.29-01.05.24:837][  0]LogConfig: Setting CVar [[r.DOF.Recombine.EnableBokehSettings:0    ; no bokeh simulation on slight out of focus]]
[2021.07.29-01.05.24:837][  0]LogConfig: Setting CVar [[r.DOF.TemporalAAQuality:1                ; more stable temporal accumulation]]
[2021.07.29-01.05.24:837][  0]LogConfig: Setting CVar [[r.DOF.Kernel.MaxForegroundRadius:0.025]]
[2021.07.29-01.05.24:837][  0]LogConfig: Setting CVar [[r.DOF.Kernel.MaxBackgroundRadius:0.025]]
[2021.07.29-01.05.24:837][  0]LogConfig: Applying CVar settings from Section [TextureQuality@3] File [C:/Users/Meresse/Documents/Unreal Projects/homework_9/Saved/Config/Windows/Scalability.ini]
[2021.07.29-01.05.24:837][  0]LogConfig: Setting CVar [[r.Streaming.MipBias:0]]
[2021.07.29-01.05.24:837][  0]LogConfig: Setting CVar [[r.Streaming.AmortizeCPUToGPUCopy:0]]
[2021.07.29-01.05.24:837][  0]LogConfig: Setting CVar [[r.Streaming.MaxNumTexturesToStreamPerFrame:0]]
[2021.07.29-01.05.24:837][  0]LogConfig: Setting CVar [[r.Streaming.Boost:1]]
[2021.07.29-01.05.24:837][  0]LogConfig: Setting CVar [[r.MaxAnisotropy:8]]
[2021.07.29-01.05.24:837][  0]LogConfig: Setting CVar [[r.Streaming.LimitPoolSizeToVRAM:0]]
[2021.07.29-01.05.24:837][  0]LogConfig: Setting CVar [[r.Streaming.PoolSize:1000]]
[2021.07.29-01.05.24:837][  0]LogConfig: Setting CVar [[r.Streaming.MaxEffectiveScreenSize:0]]
[2021.07.29-01.05.24:837][  0]LogConfig: Applying CVar settings from Section [EffectsQuality@3] File [C:/Users/Meresse/Documents/Unreal Projects/homework_9/Saved/Config/Windows/Scalability.ini]
[2021.07.29-01.05.24:837][  0]LogConfig: Setting CVar [[r.TranslucencyLightingVolumeDim:64]]
[2021.07.29-01.05.24:837][  0]LogConfig: Setting CVar [[r.RefractionQuality:2]]
[2021.07.29-01.05.24:837][  0]LogConfig: Setting CVar [[r.SSR.Quality:3]]
[2021.07.29-01.05.24:837][  0]LogConfig: Setting CVar [[r.SceneColorFormat:4]]
[2021.07.29-01.05.24:837][  0]LogConfig: Setting CVar [[r.DetailMode:2]]
[2021.07.29-01.05.24:837][  0]LogConfig: Setting CVar [[r.TranslucencyVolumeBlur:1]]
[2021.07.29-01.05.24:837][  0]LogConfig: Setting CVar [[r.MaterialQualityLevel:1 ; High quality]]
[2021.07.29-01.05.24:837][  0]LogConfig: Setting CVar [[r.SSS.Scale:1]]
[2021.07.29-01.05.24:837][  0]LogConfig: Setting CVar [[r.SSS.SampleSet:2]]
[2021.07.29-01.05.24:837][  0]LogConfig: Setting CVar [[r.SSS.Quality:1]]
[2021.07.29-01.05.24:837][  0]LogConfig: Setting CVar [[r.SSS.HalfRes:1]]
[2021.07.29-01.05.24:837][  0]LogConfig: Setting CVar [[r.EmitterSpawnRateScale:1.0]]
[2021.07.29-01.05.24:837][  0]LogConfig: Setting CVar [[r.ParticleLightQuality:2]]
[2021.07.29-01.05.24:837][  0]LogConfig: Applying CVar settings from Section [FoliageQuality@3] File [C:/Users/Meresse/Documents/Unreal Projects/homework_9/Saved/Config/Windows/Scalability.ini]
[2021.07.29-01.05.24:837][  0]LogConfig: Setting CVar [[foliage.DensityScale:1.0]]
[2021.07.29-01.05.24:837][  0]LogConfig: Setting CVar [[grass.DensityScale:1.0]]
[2021.07.29-01.05.24:837][  0]LogInit: Selected Device Profile: [Windows]
[2021.07.29-01.05.24:837][  0]LogInit: Applying CVar settings loaded from the selected device profile: [Windows]
[2021.07.29-01.05.24:849][  0]LogHAL: Display: Platform has ~ 16 GB [16977334272 / 17179869184 / 16], which maps to Larger [LargestMinGB=32, LargerMinGB=12, DefaultMinGB=8, SmallerMinGB=6, SmallestMinGB=0)
[2021.07.29-01.05.24:849][  0]LogConfig: Setting CVar [[r.Vulkan.UseRealUBs:0		; Required until we fix HLR fall-out]]
[2021.07.29-01.05.24:849][  0]LogInit: Going up to parent DeviceProfile []
[2021.07.29-01.05.24:850][  0]LogConfig: Applying CVar settings from Section [ViewDistanceQuality@3] File [C:/Users/Meresse/Documents/Unreal Projects/homework_9/Saved/Config/Windows/Scalability.ini]
[2021.07.29-01.05.24:850][  0]LogConfig: Setting CVar [[r.SkeletalMeshLODBias:0]]
[2021.07.29-01.05.24:850][  0]LogConfig: Setting CVar [[r.ViewDistanceScale:1.0]]
[2021.07.29-01.05.24:850][  0]LogConfig: Applying CVar settings from Section [AntiAliasingQuality@3] File [C:/Users/Meresse/Documents/Unreal Projects/homework_9/Saved/Config/Windows/Scalability.ini]
[2021.07.29-01.05.24:850][  0]LogConfig: Setting CVar [[r.PostProcessAAQuality:4]]
[2021.07.29-01.05.24:850][  0]LogConfig: Applying CVar settings from Section [ShadowQuality@3] File [C:/Users/Meresse/Documents/Unreal Projects/homework_9/Saved/Config/Windows/Scalability.ini]
[2021.07.29-01.05.24:850][  0]LogConfig: Setting CVar [[r.LightFunctionQuality:1]]
[2021.07.29-01.05.24:850][  0]LogConfig: Setting CVar [[r.ShadowQuality:5]]
[2021.07.29-01.05.24:850][  0]LogConfig: Setting CVar [[r.Shadow.CSM.MaxCascades:10]]
[2021.07.29-01.05.24:850][  0]LogConfig: Setting CVar [[r.Shadow.MaxResolution:2048]]
[2021.07.29-01.05.24:850][  0]LogConfig: Setting CVar [[r.Shadow.MaxCSMResolution:2048]]
[2021.07.29-01.05.24:850][  0]LogConfig: Setting CVar [[r.Shadow.RadiusThreshold:0.01]]
[2021.07.29-01.05.24:850][  0]LogConfig: Setting CVar [[r.Shadow.DistanceScale:1.0]]
[2021.07.29-01.05.24:850][  0]LogConfig: Setting CVar [[r.Shadow.CSM.TransitionScale:1.0]]
[2021.07.29-01.05.24:850][  0]LogConfig: Setting CVar [[r.Shadow.PreShadowResolutionFactor:1.0]]
[2021.07.29-01.05.24:850][  0]LogConfig: Setting CVar [[r.DistanceFieldShadowing:1]]
[2021.07.29-01.05.24:850][  0]LogConfig: Setting CVar [[r.DistanceFieldAO:1]]
[2021.07.29-01.05.24:850][  0]LogConfig: Setting CVar [[r.AOQuality:2]]
[2021.07.29-01.05.24:850][  0]LogConfig: Setting CVar [[r.VolumetricFog:1]]
[2021.07.29-01.05.24:850][  0]LogConfig: Setting CVar [[r.VolumetricFog.GridPixelSize:8]]
[2021.07.29-01.05.24:850][  0]LogConfig: Setting CVar [[r.VolumetricFog.GridSizeZ:128]]
[2021.07.29-01.05.24:850][  0]LogConfig: Setting CVar [[r.VolumetricFog.HistoryMissSupersampleCount:4]]
[2021.07.29-01.05.24:850][  0]LogConfig: Setting CVar [[r.LightMaxDrawDistanceScale:1]]
[2021.07.29-01.05.24:850][  0]LogConfig: Setting CVar [[r.CapsuleShadows:1]]
[2021.07.29-01.05.24:850][  0]LogConfig: Applying CVar settings from Section [PostProcessQuality@3] File [C:/Users/Meresse/Documents/Unreal Projects/homework_9/Saved/Config/Windows/Scalability.ini]
[2021.07.29-01.05.24:850][  0]LogConfig: Setting CVar [[r.MotionBlurQuality:4]]
[2021.07.29-01.05.24:850][  0]LogConfig: Setting CVar [[r.AmbientOcclusionMipLevelFactor:0.4]]
[2021.07.29-01.05.24:850][  0]LogConfig: Setting CVar [[r.AmbientOcclusionMaxQuality:100]]
[2021.07.29-01.05.24:850][  0]LogConfig: Setting CVar [[r.AmbientOcclusionLevels:-1]]
[2021.07.29-01.05.24:850][  0]LogConfig: Setting CVar [[r.AmbientOcclusionRadiusScale:1.0]]
[2021.07.29-01.05.24:850][  0]LogConfig: Setting CVar [[r.DepthOfFieldQuality:2]]
[2021.07.29-01.05.24:850][  0]LogConfig: Setting CVar [[r.RenderTargetPoolMin:400]]
[2021.07.29-01.05.24:850][  0]LogConfig: Setting CVar [[r.LensFlareQuality:2]]
[2021.07.29-01.05.24:850][  0]LogConfig: Setting CVar [[r.SceneColorFringeQuality:1]]
[2021.07.29-01.05.24:850][  0]LogConfig: Setting CVar [[r.EyeAdaptationQuality:2]]
[2021.07.29-01.05.24:850][  0]LogConfig: Setting CVar [[r.BloomQuality:5]]
[2021.07.29-01.05.24:850][  0]LogConfig: Setting CVar [[r.FastBlurThreshold:100]]
[2021.07.29-01.05.24:850][  0]LogConfig: Setting CVar [[r.Upscale.Quality:3]]
[2021.07.29-01.05.24:850][  0]LogConfig: Setting CVar [[r.Tonemapper.GrainQuantization:1]]
[2021.07.29-01.05.24:850][  0]LogConfig: Setting CVar [[r.LightShaftQuality:1]]
[2021.07.29-01.05.24:850][  0]LogConfig: Setting CVar [[r.Filter.SizeScale:1]]
[2021.07.29-01.05.24:850][  0]LogConfig: Setting CVar [[r.Tonemapper.Quality:5]]
[2021.07.29-01.05.24:850][  0]LogConfig: Setting CVar [[r.DOF.Gather.AccumulatorQuality:1        ; higher gathering accumulator quality]]
[2021.07.29-01.05.24:850][  0]LogConfig: Setting CVar [[r.DOF.Gather.PostfilterMethod:1          ; Median3x3 postfilering method]]
[2021.07.29-01.05.24:850][  0]LogConfig: Setting CVar [[r.DOF.Gather.EnableBokehSettings:0       ; no bokeh simulation when gathering]]
[2021.07.29-01.05.24:850][  0]LogConfig: Setting CVar [[r.DOF.Gather.RingCount:4                 ; medium number of samples when gathering]]
[2021.07.29-01.05.24:851][  0]LogConfig: Setting CVar [[r.DOF.Scatter.ForegroundCompositing:1    ; additive foreground scattering]]
[2021.07.29-01.05.24:851][  0]LogConfig: Setting CVar [[r.DOF.Scatter.BackgroundCompositing:2    ; additive background scattering]]
[2021.07.29-01.05.24:851][  0]LogConfig: Setting CVar [[r.DOF.Scatter.EnableBokehSettings:1      ; bokeh simulation when scattering]]
[2021.07.29-01.05.24:851][  0]LogConfig: Setting CVar [[r.DOF.Scatter.MaxSpriteRatio:0.1         ; only a maximum of 10% of scattered bokeh]]
[2021.07.29-01.05.24:851][  0]LogConfig: Setting CVar [[r.DOF.Recombine.Quality:1                ; cheap slight out of focus]]
[2021.07.29-01.05.24:851][  0]LogConfig: Setting CVar [[r.DOF.Recombine.EnableBokehSettings:0    ; no bokeh simulation on slight out of focus]]
[2021.07.29-01.05.24:851][  0]LogConfig: Setting CVar [[r.DOF.TemporalAAQuality:1                ; more stable temporal accumulation]]
[2021.07.29-01.05.24:851][  0]LogConfig: Setting CVar [[r.DOF.Kernel.MaxForegroundRadius:0.025]]
[2021.07.29-01.05.24:851][  0]LogConfig: Setting CVar [[r.DOF.Kernel.MaxBackgroundRadius:0.025]]
[2021.07.29-01.05.24:851][  0]LogConfig: Applying CVar settings from Section [TextureQuality@3] File [C:/Users/Meresse/Documents/Unreal Projects/homework_9/Saved/Config/Windows/Scalability.ini]
[2021.07.29-01.05.24:851][  0]LogConfig: Setting CVar [[r.Streaming.MipBias:0]]
[2021.07.29-01.05.24:851][  0]LogConfig: Setting CVar [[r.Streaming.AmortizeCPUToGPUCopy:0]]
[2021.07.29-01.05.24:851][  0]LogConfig: Setting CVar [[r.Streaming.MaxNumTexturesToStreamPerFrame:0]]
[2021.07.29-01.05.24:851][  0]LogConfig: Setting CVar [[r.Streaming.Boost:1]]
[2021.07.29-01.05.24:851][  0]LogConfig: Setting CVar [[r.MaxAnisotropy:8]]
[2021.07.29-01.05.24:851][  0]LogConfig: Setting CVar [[r.Streaming.LimitPoolSizeToVRAM:0]]
[2021.07.29-01.05.24:851][  0]LogConfig: Setting CVar [[r.Streaming.PoolSize:1000]]
[2021.07.29-01.05.24:851][  0]LogConfig: Setting CVar [[r.Streaming.MaxEffectiveScreenSize:0]]
[2021.07.29-01.05.24:851][  0]LogConfig: Applying CVar settings from Section [EffectsQuality@3] File [C:/Users/Meresse/Documents/Unreal Projects/homework_9/Saved/Config/Windows/Scalability.ini]
[2021.07.29-01.05.24:851][  0]LogConfig: Setting CVar [[r.TranslucencyLightingVolumeDim:64]]
[2021.07.29-01.05.24:851][  0]LogConfig: Setting CVar [[r.RefractionQuality:2]]
[2021.07.29-01.05.24:851][  0]LogConfig: Setting CVar [[r.SSR.Quality:3]]
[2021.07.29-01.05.24:851][  0]LogConfig: Setting CVar [[r.SceneColorFormat:4]]
[2021.07.29-01.05.24:851][  0]LogConfig: Setting CVar [[r.DetailMode:2]]
[2021.07.29-01.05.24:851][  0]LogConfig: Setting CVar [[r.TranslucencyVolumeBlur:1]]
[2021.07.29-01.05.24:851][  0]LogConfig: Setting CVar [[r.MaterialQualityLevel:1 ; High quality]]
[2021.07.29-01.05.24:851][  0]LogConfig: Setting CVar [[r.SSS.Scale:1]]
[2021.07.29-01.05.24:851][  0]LogConfig: Setting CVar [[r.SSS.SampleSet:2]]
[2021.07.29-01.05.24:851][  0]LogConfig: Setting CVar [[r.SSS.Quality:1]]
[2021.07.29-01.05.24:851][  0]LogConfig: Setting CVar [[r.SSS.HalfRes:1]]
[2021.07.29-01.05.24:851][  0]LogConfig: Setting CVar [[r.EmitterSpawnRateScale:1.0]]
[2021.07.29-01.05.24:851][  0]LogConfig: Setting CVar [[r.ParticleLightQuality:2]]
[2021.07.29-01.05.24:851][  0]LogConfig: Applying CVar settings from Section [FoliageQuality@3] File [C:/Users/Meresse/Documents/Unreal Projects/homework_9/Saved/Config/Windows/Scalability.ini]
[2021.07.29-01.05.24:851][  0]LogConfig: Setting CVar [[foliage.DensityScale:1.0]]
[2021.07.29-01.05.24:851][  0]LogConfig: Setting CVar [[grass.DensityScale:1.0]]
[2021.07.29-01.05.24:851][  0]LogConfig: Applying CVar settings from Section [Startup] File [../../../Engine/Config/ConsoleVariables.ini]
[2021.07.29-01.05.24:852][  0]LogConfig: Setting CVar [[net.UseAdaptiveNetUpdateFrequency:0]]
[2021.07.29-01.05.24:852][  0]LogConfig: Setting CVar [[p.chaos.AllowCreatePhysxBodies:1]]
[2021.07.29-01.05.24:852][  0]LogConfig: Applying CVar settings from Section [ConsoleVariables] File [C:/Users/Meresse/Documents/Unreal Projects/homework_9/Saved/Config/Windows/Engine.ini]
[2021.07.29-01.05.24:852][  0]LogInit: Computer: MERCURY7
[2021.07.29-01.05.24:852][  0]LogInit: User: Meresse
[2021.07.29-01.05.24:852][  0]LogInit: CPU Page size=4096, Cores=4
[2021.07.29-01.05.24:852][  0]LogInit: High frequency timer resolution =10.000000 MHz
[2021.07.29-01.05.24:852][  0]LogMemory: Memory total: Physical=15.8GB (16GB approx)
[2021.07.29-01.05.24:852][  0]LogMemory: Platform Memory Stats for Windows
[2021.07.29-01.05.24:853][  0]LogMemory: Process Physical Memory: 98.84 MB used, 98.84 MB peak
[2021.07.29-01.05.24:853][  0]LogMemory: Process Virtual Memory: 92.75 MB used, 92.75 MB peak
[2021.07.29-01.05.24:853][  0]LogMemory: Physical Memory: 7093.53 MB used,  9097.32 MB free, 16190.85 MB total
[2021.07.29-01.05.24:853][  0]LogMemory: Virtual Memory: 4646.26 MB used,  134213080.00 MB free, 134217728.00 MB total
[2021.07.29-01.05.25:157][  0]LogInit: Using OS detected language (en-US).
[2021.07.29-01.05.25:157][  0]LogInit: Using OS detected locale (en-US).
[2021.07.29-01.05.25:158][  0]LogTextLocalizationManager: No specific localization for 'en-US' exists, so the 'en' localization will be used.
[2021.07.29-01.05.25:431][  0]LogInit: Setting process to per monitor DPI aware
[2021.07.29-01.05.25:517][  0]LogSlate: New Slate User Created.  User Index 0, Is Virtual User: 0
[2021.07.29-01.05.25:517][  0]LogSlate: Slate User Registered.  User Index 0, Is Virtual User: 0
[2021.07.29-01.05.28:883][  0]LogHMD: Failed to initialize OpenVR with code 110
[2021.07.29-01.05.28:884][  0]LogD3D11RHI: D3D11 adapters:
[2021.07.29-01.05.28:965][  0]LogD3D11RHI:    0. 'Intel(R) UHD Graphics' (Feature Level 11_0)
[2021.07.29-01.05.28:965][  0]LogD3D11RHI:       128/0/8095 MB DedicatedVideo/DedicatedSystem/SharedSystem, Outputs:1, VendorId:0x8086
[2021.07.29-01.05.28:968][  0]LogD3D11RHI:    1. 'Microsoft Basic Render Driver' (Feature Level 11_0)
[2021.07.29-01.05.28:968][  0]LogD3D11RHI:       0/0/8095 MB DedicatedVideo/DedicatedSystem/SharedSystem, Outputs:0, VendorId:0x1414
[2021.07.29-01.05.28:968][  0]LogD3D11RHI: Chosen D3D11 Adapter: 0
[2021.07.29-01.05.28:973][  0]LogD3D11RHI: Creating new Direct3DDevice
[2021.07.29-01.05.28:974][  0]LogD3D11RHI:     GPU DeviceId: 0x9b41 (for the marketing name, search the web for "GPU Device Id")
[2021.07.29-01.05.28:974][  0]LogWindows: EnumDisplayDevices:
[2021.07.29-01.05.28:974][  0]LogWindows:    0. 'Intel(R) UHD Graphics' (P:1 D:1)
[2021.07.29-01.05.28:974][  0]LogWindows:    1. 'Intel(R) UHD Graphics' (P:0 D:0)
[2021.07.29-01.05.28:974][  0]LogWindows:    2. 'Intel(R) UHD Graphics' (P:0 D:0)
[2021.07.29-01.05.28:974][  0]LogWindows: DebugString: FoundDriverCount:3 
[2021.07.29-01.05.28:974][  0]LogD3D11RHI:     Adapter Name: Intel(R) UHD Graphics
[2021.07.29-01.05.28:974][  0]LogD3D11RHI:   Driver Version: 27.20.100.8935 (internal:27.20.100.8935, unified:27.20.100.8935)
[2021.07.29-01.05.28:974][  0]LogD3D11RHI:      Driver Date: 10-28-2020
[2021.07.29-01.05.28:974][  0]LogRHI: Texture pool is 1523 MB (70% of 2176 MB)
[2021.07.29-01.05.29:047][  0]LogD3D11RHI: Async texture creation enabled
[2021.07.29-01.05.29:051][  0]LogRendererCore: FGlobalReadBuffer::InitRHI
[2021.07.29-01.05.29:052][  0]LogRendererCore: FGlobalReadBuffer::InitRHI
[2021.07.29-01.05.29:052][  0]LogRendererCore: FGlobalReadBuffer::InitRHI
[2021.07.29-01.05.29:054][  0]LogD3D11RHI: GPU Timing Frequency: 12.000048 (Debug: 2 0)
[2021.07.29-01.05.29:449][  0]LogTemp: Display: Module 'AllDesktopTargetPlatform' loaded TargetPlatform 'AllDesktop'
[2021.07.29-01.05.29:471][  0]LogTemp: Display: Module 'MacClientTargetPlatform' loaded TargetPlatform 'MacClient'
[2021.07.29-01.05.29:493][  0]LogTemp: Display: Module 'MacNoEditorTargetPlatform' loaded TargetPlatform 'MacNoEditor'
[2021.07.29-01.05.29:514][  0]LogTemp: Display: Module 'MacServerTargetPlatform' loaded TargetPlatform 'MacServer'
[2021.07.29-01.05.29:537][  0]LogTemp: Display: Module 'MacTargetPlatform' loaded TargetPlatform 'Mac'
[2021.07.29-01.05.29:557][  0]LogTemp: Display: Module 'WindowsClientTargetPlatform' loaded TargetPlatform 'WindowsClient'
[2021.07.29-01.05.29:580][  0]LogTemp: Display: Module 'WindowsNoEditorTargetPlatform' loaded TargetPlatform 'WindowsNoEditor'
[2021.07.29-01.05.29:600][  0]LogTemp: Display: Module 'WindowsServerTargetPlatform' loaded TargetPlatform 'WindowsServer'
[2021.07.29-01.05.29:610][  0]LogTemp: Display: Module 'WindowsTargetPlatform' loaded TargetPlatform 'Windows'
[2021.07.29-01.05.29:721][  0]LogTemp: Display: Module 'AndroidTargetPlatform' loaded TargetPlatform 'Android'
[2021.07.29-01.05.29:722][  0]LogTemp: Display: Module 'AndroidTargetPlatform' loaded TargetPlatform 'Android_ASTC'
[2021.07.29-01.05.29:722][  0]LogTemp: Display: Module 'AndroidTargetPlatform' loaded TargetPlatform 'Android_ATC'
[2021.07.29-01.05.29:722][  0]LogTemp: Display: Module 'AndroidTargetPlatform' loaded TargetPlatform 'Android_DXT'
[2021.07.29-01.05.29:722][  0]LogTemp: Display: Module 'AndroidTargetPlatform' loaded TargetPlatform 'Android_ETC1'
[2021.07.29-01.05.29:722][  0]LogTemp: Display: Module 'AndroidTargetPlatform' loaded TargetPlatform 'Android_ETC1a'
[2021.07.29-01.05.29:722][  0]LogTemp: Display: Module 'AndroidTargetPlatform' loaded TargetPlatform 'Android_ETC2'
[2021.07.29-01.05.29:722][  0]LogTemp: Display: Module 'AndroidTargetPlatform' loaded TargetPlatform 'Android_PVRTC'
[2021.07.29-01.05.29:722][  0]LogTemp: Display: Module 'AndroidTargetPlatform' loaded TargetPlatform 'AndroidClient'
[2021.07.29-01.05.29:722][  0]LogTemp: Display: Module 'AndroidTargetPlatform' loaded TargetPlatform 'Android_ASTCClient'
[2021.07.29-01.05.29:722][  0]LogTemp: Display: Module 'AndroidTargetPlatform' loaded TargetPlatform 'Android_ATCClient'
[2021.07.29-01.05.29:722][  0]LogTemp: Display: Module 'AndroidTargetPlatform' loaded TargetPlatform 'Android_DXTClient'
[2021.07.29-01.05.29:722][  0]LogTemp: Display: Module 'AndroidTargetPlatform' loaded TargetPlatform 'Android_ETC1Client'
[2021.07.29-01.05.29:722][  0]LogTemp: Display: Module 'AndroidTargetPlatform' loaded TargetPlatform 'Android_ETC1aClient'
[2021.07.29-01.05.29:722][  0]LogTemp: Display: Module 'AndroidTargetPlatform' loaded TargetPlatform 'Android_ETC2Client'
[2021.07.29-01.05.29:722][  0]LogTemp: Display: Module 'AndroidTargetPlatform' loaded TargetPlatform 'Android_PVRTCClient'
[2021.07.29-01.05.29:722][  0]LogTemp: Display: Module 'AndroidTargetPlatform' loaded TargetPlatform 'Android_Multi'
[2021.07.29-01.05.29:722][  0]LogTemp: Display: Module 'AndroidTargetPlatform' loaded TargetPlatform 'Android_MultiClient'
[2021.07.29-01.05.29:725][  0]LogTemp: Display: Module 'HTML5TargetPlatform' loaded TargetPlatform 'HTML5'
[2021.07.29-01.05.29:787][  0]LogTemp: Display: Module 'IOSTargetPlatform' loaded TargetPlatform 'IOSClient'
[2021.07.29-01.05.29:787][  0]LogTemp: Display: Module 'IOSTargetPlatform' loaded TargetPlatform 'IOS'
[2021.07.29-01.05.29:824][  0]LogTemp: Display: Module 'TVOSTargetPlatform' loaded TargetPlatform 'TVOSClient'
[2021.07.29-01.05.29:824][  0]LogTemp: Display: Module 'TVOSTargetPlatform' loaded TargetPlatform 'TVOS'
[2021.07.29-01.05.29:841][  0]LogTemp: Display: Module 'LinuxClientTargetPlatform' loaded TargetPlatform 'LinuxClient'
[2021.07.29-01.05.29:860][  0]LogTemp: Display: Module 'LinuxNoEditorTargetPlatform' loaded TargetPlatform 'LinuxNoEditor'
[2021.07.29-01.05.29:879][  0]LogTemp: Display: Module 'LinuxServerTargetPlatform' loaded TargetPlatform 'LinuxServer'
[2021.07.29-01.05.29:899][  0]LogTemp: Display: Module 'LinuxTargetPlatform' loaded TargetPlatform 'Linux'
[2021.07.29-01.05.29:966][  0]LogTemp: Display: Module 'LuminTargetPlatform' loaded TargetPlatform 'Lumin'
[2021.07.29-01.05.29:966][  0]LogTemp: Display: Module 'LuminTargetPlatform' loaded TargetPlatform 'LuminClient'
[2021.07.29-01.05.29:966][  0]LogTargetPlatformManager: Display: Building Assets For Windows
[2021.07.29-01.05.30:080][  0]LogAudioDebug: Display: Lib vorbis DLL was dynamically loaded.
[2021.07.29-01.05.30:204][  0]LogShaderCompilers: Guid format shader working directory is -21 characters bigger than the processId version (../../../../../../Users/Meresse/Documents/Unreal Projects/homework_9/Intermediate/Shaders/WorkingDirectory/11668/).
[2021.07.29-01.05.30:204][  0]LogShaderCompilers: Cleaned the shader compiler working directory 'C:/Users/Meresse/AppData/Local/Temp/UnrealShaderWorkingDir/3BE3987047F5077131F8CC9C7793F6C1/'.
[2021.07.29-01.05.30:208][  0]LogXGEController: Cleaning working directory: C:/Users/Meresse/AppData/Local/Temp/UnrealXGEWorkingDir/
[2021.07.29-01.05.30:208][  0]LogXGEController: Cannot use XGE Controller as Incredibuild is not installed on this machine.
[2021.07.29-01.05.30:208][  0]LogShaderCompilers: Cannot use XGE Shader Compiler as Incredibuild is not installed on this machine.
[2021.07.29-01.05.30:208][  0]LogShaderCompilers: Display: Using Local Shader Compiler.
[2021.07.29-01.05.33:247][  0]LogDerivedDataCache: Display: Max Cache Size: 512 MB
[2021.07.29-01.05.33:314][  0]LogDerivedDataCache: Loaded boot cache 0.07s 71MB C:/Users/Meresse/AppData/Local/UnrealEngine/4.22/DerivedDataCache/Boot.ddc.
[2021.07.29-01.05.33:314][  0]LogDerivedDataCache: Display: Loaded Boot cache: C:/Users/Meresse/AppData/Local/UnrealEngine/4.22/DerivedDataCache/Boot.ddc
[2021.07.29-01.05.33:314][  0]LogDerivedDataCache: FDerivedDataBackendGraph:  Pak pak cache file ../../../../../../Users/Meresse/Documents/Unreal Projects/homework_9/DerivedDataCache/DDC.ddp not found, will not use a pak cache.
[2021.07.29-01.05.33:314][  0]LogDerivedDataCache: Unable to find inner node Pak for hierarchical cache Hierarchy.
[2021.07.29-01.05.33:314][  0]LogDerivedDataCache: FDerivedDataBackendGraph:  CompressedPak pak cache file ../../../../../../Users/Meresse/Documents/Unreal Projects/homework_9/DerivedDataCache/Compressed.ddp not found, will not use a pak cache.
[2021.07.29-01.05.33:314][  0]LogDerivedDataCache: Unable to find inner node CompressedPak for hierarchical cache Hierarchy.
[2021.07.29-01.05.33:344][  0]LogDerivedDataCache: Display: Pak cache opened for reading ../../../Engine/DerivedDataCache/Compressed.ddp.
[2021.07.29-01.05.33:344][  0]LogDerivedDataCache: FDerivedDataBackendGraph:  EnterprisePak pak cache file ../../../Enterprise/DerivedDataCache/Compressed.ddp not found, will not use a pak cache.
[2021.07.29-01.05.33:344][  0]LogDerivedDataCache: Unable to find inner node EnterprisePak for hierarchical cache Hierarchy.
[2021.07.29-01.05.33:356][  0]LogDerivedDataCache: Using Local data cache path C:/Users/Meresse/AppData/Local/UnrealEngine/Common/DerivedDataCache: Writable
[2021.07.29-01.05.33:356][  0]LogDerivedDataCache: Shared data cache path not found in *engine.ini, will not use an Shared cache.
[2021.07.29-01.05.33:356][  0]LogDerivedDataCache: Unable to find inner node Shared for hierarchical cache Hierarchy.
[2021.07.29-01.05.33:384][  0]LogMaterial: Verifying Global Shaders for PCD3D_SM5
[2021.07.29-01.05.33:385][  0]LogSlate: Using FreeType 2.6.0
[2021.07.29-01.05.33:402][  0]LogSlate: SlateFontServices - WITH_FREETYPE: 1, WITH_HARFBUZZ: 1
[2021.07.29-01.05.33:542][  0]LogAssetRegistry: FAssetRegistry took 0.0409 seconds to start up
[2021.07.29-01.05.34:188][  0]LogInit: Selected Device Profile: [Windows]
[2021.07.29-01.05.34:603][  0]LogMeshReduction: Using QuadricMeshReduction for automatic static mesh reduction
[2021.07.29-01.05.34:603][  0]LogMeshReduction: Using SimplygonMeshReduction for automatic skeletal mesh reduction
[2021.07.29-01.05.34:603][  0]LogMeshReduction: Using ProxyLODMeshReduction for automatic mesh merging
[2021.07.29-01.05.34:603][  0]LogMeshReduction: No distributed automatic mesh merging module available
[2021.07.29-01.05.34:603][  0]LogMeshMerging: No distributed automatic mesh merging module available
[2021.07.29-01.05.34:662][  0]LogNetVersion: arkanoid 1.0.0, NetCL: 5660361, EngineNetVer: 10, GameNetVer: 0 (Checksum: 697187716)
[2021.07.29-01.05.36:225][  0]LogPackageLocalizationCache: Processed 10 localized package path(s) for 1 prioritized culture(s) in 0.053480 seconds
[2021.07.29-01.05.36:235][  0]LogUObjectArray: 42206 objects as part of root set at end of initial load.
[2021.07.29-01.05.36:235][  0]LogUObjectAllocator: 7325256 out of 0 bytes used by permanent object pool.
[2021.07.29-01.05.36:235][  0]LogUObjectArray: CloseDisregardForGC: 0/0 objects in disregard for GC pool
[2021.07.29-01.05.37:999][  0]LogTcpMessaging: Initializing TcpMessaging bridge
[2021.07.29-01.05.38:013][  0]LogUdpMessaging: Initializing bridge on interface 0.0.0.0:0 to multicast group 230.0.0.1:6666.
[2021.07.29-01.05.38:164][  0]SourceControl: Source control is disabled
[2021.07.29-01.05.38:164][  0]SourceControl: Source control is disabled
[2021.07.29-01.05.38:166][  0]SourceControl: Source control is disabled
[2021.07.29-01.05.38:168][  0]SourceControl: Source control is disabled
[2021.07.29-01.05.38:310][  0]LogAndroidPermission: UAndroidPermissionCallbackProxy::GetInstance
[2021.07.29-01.05.38:420][  0]LogOcInput: OculusInput pre-init called
[2021.07.29-01.05.39:355][  0]LogEngine: Initializing Engine...
[2021.07.29-01.05.39:356][  0]LogHMD: Failed to initialize OpenVR with code 110
[2021.07.29-01.05.39:358][  0]LogStats: UGameplayTagsManager::InitializeManager -  0.001 s
[2021.07.29-01.05.39:932][  0]LogInit: Initializing FReadOnlyCVARCache
[2021.07.29-01.05.39:958][  0]LogAIModule: Creating AISystem for world Untitled
[2021.07.29-01.05.39:979][  0]LogInit: XAudio2 using 'Speakers (Synaptics Audio)' : 2 channels at 48 kHz using 32 bits per sample (channel mask 0x3)
[2021.07.29-01.05.40:127][  0]LogInit: FAudioDevice initialized.
[2021.07.29-01.05.40:127][  0]LogNetVersion: Set ProjectVersion to 1.0.0.0. Version Checksum will be recalculated on next use.
[2021.07.29-01.05.40:893][  0]LogDerivedDataCache: Saved boot cache 0.77s 71MB C:/Users/Meresse/AppData/Local/UnrealEngine/4.22/DerivedDataCache/Boot.ddc.
[2021.07.29-01.05.40:900][  0]LogInit: Texture streaming: Enabled
[2021.07.29-01.05.40:930][  0]LogEngineSessionManager: EngineSessionManager initialized
[2021.07.29-01.05.40:960][  0]LogInit: Transaction tracking system initialized
[2021.07.29-01.05.41:000][  0]BlueprintLog: New page: Editor Load
[2021.07.29-01.05.41:147][  0]LocalizationService: Localization service is disabled
[2021.07.29-01.05.41:328][  0]LogLinker: Warning: Can't find file '/Game/TopDownBP/TopDownOverview'
[2021.07.29-01.05.41:328][  0]LogLinker: Warning: Can't find file '/Game/TopDownBP/TopDownOverview'
[2021.07.29-01.05.41:328][  0]LogUObjectGlobals: Warning: Failed to find object 'Class /Game/TopDownBP/TopDownOverview.TopDownOverview_C'
[2021.07.29-01.05.42:003][  0]LogFileCache: Scanning file cache for directory 'C:/Users/Meresse/Documents/Unreal Projects/homework_9/Content/' took 0.01s
[2021.07.29-01.05.42:003][  0]LogCook: Display: Max memory allowance for cook 16384mb min free memory 0mb
[2021.07.29-01.05.42:003][  0]LogCook: Display: Mobile HDR setting 1
[2021.07.29-01.05.42:188][  0]LogLinker: Warning: Can't find file '/Engine/BasicShapes/Cube'
[2021.07.29-01.05.42:189][  0]LogLinker: Warning: Can't find file '/Engine/BasicShapes/Cube'
[2021.07.29-01.05.42:189][  0]LogUObjectGlobals: Warning: Failed to find object 'StaticMesh /Engine/BasicShapes/Cube.Cube'
[2021.07.29-01.05.42:481][  0]SourceControl: Source control is disabled
[2021.07.29-01.05.42:481][  0]Cmd: MAP LOAD FILE="../../../../../../Users/Meresse/Documents/Unreal Projects/homework_9/Content/TopDownBP/Maps/TopDownExampleMap.umap" TEMPLATE=0 SHOWPROGRESS=1 FEATURELEVEL=3
[2021.07.29-01.05.42:482][  0]LightingResults: New page: Lighting Build
[2021.07.29-01.05.42:486][  0]MapCheck: New page: Map Check
[2021.07.29-01.05.42:486][  0]LightingResults: New page: Lighting Build
[2021.07.29-01.05.42:521][  0]LogUObjectHash: Compacting FUObjectHashTables data took   2.28ms
[2021.07.29-01.05.42:923][  0]LogAIModule: Creating AISystem for world TopDownExampleMap
[2021.07.29-01.05.43:021][  0]LogEditorServer: Finished looking for orphan Actors (0.000 secs)
[2021.07.29-01.05.43:100][  0]LogUObjectHash: Compacting FUObjectHashTables data took   3.38ms
[2021.07.29-01.05.43:100][  0]Cmd: MAP CHECKDEP NOCLEARLOG
[2021.07.29-01.05.43:101][  0]MapCheck: Map check complete: 0 Error(s), 0 Warning(s), took 0.345ms to complete.
[2021.07.29-01.05.43:101][  0]LogFileHelpers: Loading map 'TopDownExampleMap' took 0.620
[2021.07.29-01.05.43:310][  0]LogSlate: Updating window title bar state: overlay mode, drag disabled, window buttons hidden, title bar hidden
[2021.07.29-01.05.43:324][  0]LogSlate: Updating window title bar state: overlay mode, drag disabled, window buttons hidden, title bar hidden
[2021.07.29-01.05.43:339][  0]LogSlate: Updating window title bar state: overlay mode, drag disabled, window buttons hidden, title bar hidden
[2021.07.29-01.05.43:354][  0]LogSlate: Updating window title bar state: overlay mode, drag disabled, window buttons hidden, title bar hidden
[2021.07.29-01.05.43:376][  0]LogCollectionManager: Loaded 0 collections in 0.004415 seconds
[2021.07.29-01.05.43:413][  0]LogFileCache: Scanning file cache for directory 'C:/Users/Meresse/Documents/Unreal Projects/homework_9/Saved/Collections/' took 0.01s
[2021.07.29-01.05.43:413][  0]LogFileCache: Scanning file cache for directory 'C:/Users/Meresse/Documents/Unreal Projects/homework_9/Content/Developers/Meresse/Collections/' took 0.01s
[2021.07.29-01.05.43:413][  0]LogFileCache: Scanning file cache for directory 'C:/Users/Meresse/Documents/Unreal Projects/homework_9/Content/Collections/' took 0.00s
[2021.07.29-01.05.43:413][  0]LogCollectionManager: Rebuilt the GUID cache for 0 collections in 0.000001 seconds
[2021.07.29-01.05.43:428][  0]LogContentBrowser: Native class hierarchy populated in 0.0152 seconds. Added 2732 classes and 659 folders.
[2021.07.29-01.05.43:443][  0]LogContentBrowser: Native class hierarchy updated for 'WidgetCarousel' in 0.0004 seconds. Added 0 classes and 0 folders.
[2021.07.29-01.05.43:448][  0]LogPakFile: Registered encryption key '00000000000000000000000000000000': 0 pak files mounted, 0 remain pending
[2021.07.29-01.05.43:463][  0]LogPakFile: Registered encryption key '00000000000000000000000000000000': 0 pak files mounted, 0 remain pending
[2021.07.29-01.05.43:500][  0]LogPakFile: Registered encryption key '00000000000000000000000000000000': 0 pak files mounted, 0 remain pending
[2021.07.29-01.05.43:512][  0]LogPakFile: Registered encryption key '00000000000000000000000000000000': 0 pak files mounted, 0 remain pending
[2021.07.29-01.05.43:522][  0]LogPakFile: Registered encryption key '00000000000000000000000000000000': 0 pak files mounted, 0 remain pending
[2021.07.29-01.05.43:533][  0]LogPakFile: Registered encryption key '00000000000000000000000000000000': 0 pak files mounted, 0 remain pending
[2021.07.29-01.05.43:544][  0]LogPakFile: Registered encryption key '00000000000000000000000000000000': 0 pak files mounted, 0 remain pending
[2021.07.29-01.05.43:554][  0]LogPakFile: Registered encryption key '00000000000000000000000000000000': 0 pak files mounted, 0 remain pending
[2021.07.29-01.05.43:565][  0]LogPakFile: Registered encryption key '00000000000000000000000000000000': 0 pak files mounted, 0 remain pending
[2021.07.29-01.05.43:576][  0]LogPakFile: Registered encryption key '00000000000000000000000000000000': 0 pak files mounted, 0 remain pending
[2021.07.29-01.05.43:586][  0]LogPakFile: Registered encryption key '00000000000000000000000000000000': 0 pak files mounted, 0 remain pending
[2021.07.29-01.05.43:598][  0]LogPakFile: Registered encryption key '00000000000000000000000000000000': 0 pak files mounted, 0 remain pending
[2021.07.29-01.05.43:607][  0]LogPakFile: Registered encryption key '00000000000000000000000000000000': 0 pak files mounted, 0 remain pending
[2021.07.29-01.05.43:618][  0]LogPakFile: Registered encryption key '00000000000000000000000000000000': 0 pak files mounted, 0 remain pending
[2021.07.29-01.05.43:628][  0]LogPakFile: Registered encryption key '00000000000000000000000000000000': 0 pak files mounted, 0 remain pending
[2021.07.29-01.05.43:637][  0]LogPakFile: Registered encryption key '00000000000000000000000000000000': 0 pak files mounted, 0 remain pending
[2021.07.29-01.05.43:683][  0]LogPakFile: Registered encryption key '00000000000000000000000000000000': 0 pak files mounted, 0 remain pending
[2021.07.29-01.05.43:693][  0]LogPakFile: Registered encryption key '00000000000000000000000000000000': 0 pak files mounted, 0 remain pending
[2021.07.29-01.05.43:702][  0]LogPakFile: Registered encryption key '00000000000000000000000000000000': 0 pak files mounted, 0 remain pending
[2021.07.29-01.05.43:712][  0]LogPakFile: Registered encryption key '00000000000000000000000000000000': 0 pak files mounted, 0 remain pending
[2021.07.29-01.05.43:723][  0]LogPakFile: Registered encryption key '00000000000000000000000000000000': 0 pak files mounted, 0 remain pending
[2021.07.29-01.05.43:733][  0]LogPakFile: Registered encryption key '00000000000000000000000000000000': 0 pak files mounted, 0 remain pending
[2021.07.29-01.05.43:743][  0]LogPakFile: Registered encryption key '00000000000000000000000000000000': 0 pak files mounted, 0 remain pending
[2021.07.29-01.05.43:753][  0]LogPakFile: Registered encryption key '00000000000000000000000000000000': 0 pak files mounted, 0 remain pending
[2021.07.29-01.05.43:763][  0]LogPakFile: Registered encryption key '00000000000000000000000000000000': 0 pak files mounted, 0 remain pending
[2021.07.29-01.05.43:772][  0]LogPakFile: Registered encryption key '00000000000000000000000000000000': 0 pak files mounted, 0 remain pending
[2021.07.29-01.05.43:962][  0]LogContentBrowser: Native class hierarchy updated for 'AddContentDialog' in 0.0004 seconds. Added 0 classes and 0 folders.
[2021.07.29-01.05.43:971][  0]LogContentBrowser: Native class hierarchy updated for 'SceneOutliner' in 0.0004 seconds. Added 1 classes and 2 folders.
[2021.07.29-01.05.44:036][  0]LogContentBrowser: Native class hierarchy updated for 'HierarchicalLODOutliner' in 0.0007 seconds. Added 0 classes and 0 folders.
[2021.07.29-01.05.44:036][  0]LogLoad: (Engine Initialization) Total time: 23.33 seconds
[2021.07.29-01.05.44:036][  0]LogLoad: (Engine Initialization) Total Blueprint compile time: 0.00 seconds
[2021.07.29-01.05.44:093][  0]LogAssetRegistry: Asset discovery search completed in 10.5729 seconds
[2021.07.29-01.05.44:098][  0]LogCollectionManager: Rebuilt the object cache for 0 collections in 0.000000 seconds (found 0 objects)
[2021.07.29-01.05.44:098][  0]LogCollectionManager: Fixed up redirectors for 0 collections in 0.000079 seconds (updated 0 objects)
[2021.07.29-01.05.44:101][  0]LogContentStreaming: Texture pool size now 1000 MB
[2021.07.29-01.05.44:121][  0]LogSlate: Took 0.007661 seconds to synchronously load lazily loaded font '../../../Engine/Content/Slate/Fonts/Roboto-Regular.ttf' (155K)
[2021.07.29-01.05.44:130][  0]LogSlate: Took 0.007570 seconds to synchronously load lazily loaded font '../../../Engine/Content/Slate/Fonts/Roboto-Bold.ttf' (160K)
[2021.07.29-01.05.44:145][  0]LogSlate: Took 0.008699 seconds to synchronously load lazily loaded font '../../../Engine/Content/Editor/Slate/Fonts/FontAwesome.ttf' (139K)
[2021.07.29-01.05.44:632][  0]LogSlate: Took 0.012177 seconds to synchronously load lazily loaded font '../../../Engine/Content/Slate/Fonts/Roboto-Light.ttf' (167K)
[2021.07.29-01.05.44:685][  1]LogRenderer: Reallocating scene render targets to support 740x356 Format 10 NumSamples 1 (Frame:1).
[2021.07.29-01.06.33:749][213]LogSlate: FSceneViewport::OnFocusLost() reason 0
[2021.07.29-01.10.43:240][ 19]LogSlate: Took 0.000183 seconds to synchronously load lazily loaded font '../../../Engine/Content/Slate/Fonts/Roboto-Light.ttf' (167K)
[2021.07.29-01.10.43:260][ 19]LogAssetEditorManager: Opening Asset editor for Blueprint /Game/BP_Pawn.BP_Pawn
[2021.07.29-01.10.43:654][ 19]LogContentBrowser: Native class hierarchy updated for 'BlueprintGraph' in 0.0005 seconds. Added 121 classes and 0 folders.
[2021.07.29-01.10.44:478][ 19]LogSlate: Took 0.005289 seconds to synchronously load lazily loaded font '../../../Engine/Content/Slate/Fonts/Roboto-BoldCondensed.ttf' (158K)
[2021.07.29-01.10.48:571][140]LogSlate: Took 0.014993 seconds to synchronously load lazily loaded font '../../../Engine/Content/Slate/Fonts/Roboto-Italic.ttf' (157K)
[2021.07.29-01.10.52:872][257]LogSlate: Window 'BP_Pawn' being destroyed
[2021.07.29-01.10.52:896][257]LogSlate: Window 'BP_Pawn' being destroyed
[2021.07.29-01.10.58:367][400]LogSlate: FSceneViewport::OnFocusLost() reason 2
[2021.07.29-01.11.00:584][522]LogUObjectHash: Compacting FUObjectHashTables data took  10.96ms
[2021.07.29-01.11.03:980][605]LogSlate: FSceneViewport::OnFocusLost() reason 0
